5.445000000000000000e+03
4.904000000000000000e+03
4.164000000000000000e+03
3.319000000000000000e+03
2.588000000000000000e+03
2.173000000000000000e+03
2.099000000000000000e+03
2.150000000000000000e+03
2.013000000000000000e+03
1.507000000000000000e+03
7.040000000000000000e+02
-1.730000000000000000e+02
-9.590000000000000000e+02
-1.676000000000000000e+03
-2.470000000000000000e+03
-3.429000000000000000e+03
-4.479000000000000000e+03
-5.445000000000000000e+03
-6.206000000000000000e+03
-6.790000000000000000e+03
-7.326000000000000000e+03
-7.927000000000000000e+03
-8.608000000000000000e+03
-9.306000000000000000e+03
-9.952000000000000000e+03
-1.053100000000000000e+04
-1.106300000000000000e+04
-1.157100000000000000e+04
-1.204400000000000000e+04
-1.243900000000000000e+04
-1.269500000000000000e+04
-1.276300000000000000e+04
-1.262500000000000000e+04
-1.232100000000000000e+04
-1.193600000000000000e+04
-1.156000000000000000e+04
-1.123100000000000000e+04
-1.091600000000000000e+04
-1.055100000000000000e+04
-1.010900000000000000e+04
-9.631000000000000000e+03
-9.191000000000000000e+03
-8.825000000000000000e+03
-8.485000000000000000e+03
-8.080000000000000000e+03
-7.549000000000000000e+03
-6.908000000000000000e+03
-6.222000000000000000e+03
-5.542000000000000000e+03
-4.868000000000000000e+03
-4.176000000000000000e+03
-3.475000000000000000e+03
-2.827000000000000000e+03
-2.313000000000000000e+03
-1.969000000000000000e+03
-1.754000000000000000e+03
-1.579000000000000000e+03
-1.376000000000000000e+03
-1.134000000000000000e+03
-8.870000000000000000e+02
-6.660000000000000000e+02
-4.740000000000000000e+02
-2.960000000000000000e+02
-1.330000000000000000e+02
-2.300000000000000000e+01
-1.200000000000000000e+01
-1.200000000000000000e+02
-3.130000000000000000e+02
-5.280000000000000000e+02
-7.100000000000000000e+02
-8.360000000000000000e+02
-9.070000000000000000e+02
-9.180000000000000000e+02
-8.490000000000000000e+02
-6.810000000000000000e+02
-4.310000000000000000e+02
-1.540000000000000000e+02
7.900000000000000000e+01
2.190000000000000000e+02
2.690000000000000000e+02
2.700000000000000000e+02
2.800000000000000000e+02
3.440000000000000000e+02
4.860000000000000000e+02
7.120000000000000000e+02
1.021000000000000000e+03
1.404000000000000000e+03
1.856000000000000000e+03
2.367000000000000000e+03
2.921000000000000000e+03
3.486000000000000000e+03
4.015000000000000000e+03
4.468000000000000000e+03
4.831000000000000000e+03
5.129000000000000000e+03
5.409000000000000000e+03
5.708000000000000000e+03
6.034000000000000000e+03
6.371000000000000000e+03
6.701000000000000000e+03
7.021000000000000000e+03
7.326000000000000000e+03
7.593000000000000000e+03
7.780000000000000000e+03
7.841000000000000000e+03
7.760000000000000000e+03
7.565000000000000000e+03
7.307000000000000000e+03
7.028000000000000000e+03
6.744000000000000000e+03
6.448000000000000000e+03
6.128000000000000000e+03
5.780000000000000000e+03
5.413000000000000000e+03
5.042000000000000000e+03
4.675000000000000000e+03
4.300000000000000000e+03
3.877000000000000000e+03
3.349000000000000000e+03
2.678000000000000000e+03
1.888000000000000000e+03
1.064000000000000000e+03
3.070000000000000000e+02
-3.290000000000000000e+02
-8.730000000000000000e+02
-1.395000000000000000e+03
-1.943000000000000000e+03
-2.498000000000000000e+03
-2.998000000000000000e+03
-3.402000000000000000e+03
-3.723000000000000000e+03
-4.017000000000000000e+03
-4.332000000000000000e+03
-4.676000000000000000e+03
-5.022000000000000000e+03
-5.332000000000000000e+03
-5.585000000000000000e+03
-5.781000000000000000e+03
-5.931000000000000000e+03
-6.041000000000000000e+03
-6.118000000000000000e+03
-6.167000000000000000e+03
-6.192000000000000000e+03
-6.201000000000000000e+03
-6.196000000000000000e+03
-6.179000000000000000e+03
-6.153000000000000000e+03
-6.125000000000000000e+03
-6.106000000000000000e+03
-6.103000000000000000e+03
-6.101000000000000000e+03
-6.072000000000000000e+03
-5.998000000000000000e+03
-5.892000000000000000e+03
-5.810000000000000000e+03
-5.808000000000000000e+03
-5.907000000000000000e+03
-6.071000000000000000e+03
-6.237000000000000000e+03
-6.367000000000000000e+03
-6.475000000000000000e+03
-6.611000000000000000e+03
-6.818000000000000000e+03
-7.100000000000000000e+03
-7.420000000000000000e+03
-7.728000000000000000e+03
-7.991000000000000000e+03
-8.199000000000000000e+03
-8.365000000000000000e+03
-8.517000000000000000e+03
-8.680000000000000000e+03
-8.872000000000000000e+03
-9.095000000000000000e+03
-9.334000000000000000e+03
-9.563000000000000000e+03
-9.756000000000000000e+03
-9.895000000000000000e+03
-9.984000000000000000e+03
-1.004000000000000000e+04
-1.007700000000000000e+04
-1.009500000000000000e+04
-1.007400000000000000e+04
-9.989000000000000000e+03
-9.839000000000000000e+03
-9.654000000000000000e+03
-9.474000000000000000e+03
-9.312000000000000000e+03
-9.143000000000000000e+03
-8.918000000000000000e+03
-8.612000000000000000e+03
-8.239000000000000000e+03
-7.836000000000000000e+03
-7.428000000000000000e+03
-7.009000000000000000e+03
-6.552000000000000000e+03
-6.045000000000000000e+03
-5.506000000000000000e+03
-4.973000000000000000e+03
-4.485000000000000000e+03
-4.059000000000000000e+03
-3.686000000000000000e+03
-3.336000000000000000e+03
-2.978000000000000000e+03
-2.591000000000000000e+03
-2.183000000000000000e+03
-1.784000000000000000e+03
-1.432000000000000000e+03
-1.136000000000000000e+03
-8.710000000000000000e+02
-6.040000000000000000e+02
-3.290000000000000000e+02
-8.700000000000000000e+01
6.700000000000000000e+01
1.090000000000000000e+02
7.900000000000000000e+01
4.800000000000000000e+01
6.900000000000000000e+01
1.380000000000000000e+02
2.130000000000000000e+02
2.500000000000000000e+02
2.470000000000000000e+02
2.220000000000000000e+02
1.800000000000000000e+02
9.000000000000000000e+01
-7.900000000000000000e+01
-3.010000000000000000e+02
-4.870000000000000000e+02
-5.540000000000000000e+02
-5.270000000000000000e+02
-5.400000000000000000e+02
-7.170000000000000000e+02
-1.013000000000000000e+03
-1.182000000000000000e+03
-9.290000000000000000e+02
-1.440000000000000000e+02
1.003000000000000000e+03
2.181000000000000000e+03
3.121000000000000000e+03
3.777000000000000000e+03
4.285000000000000000e+03
4.822000000000000000e+03
5.470000000000000000e+03
6.193000000000000000e+03
6.879000000000000000e+03
7.428000000000000000e+03
7.828000000000000000e+03
8.206000000000000000e+03
8.787000000000000000e+03
9.758000000000000000e+03
1.109900000000000000e+04
1.254300000000000000e+04
1.373000000000000000e+04
1.445400000000000000e+04
1.479000000000000000e+04
1.498000000000000000e+04
1.518700000000000000e+04
1.536700000000000000e+04
1.537500000000000000e+04
1.519700000000000000e+04
1.504800000000000000e+04
1.523100000000000000e+04
1.586800000000000000e+04
1.677500000000000000e+04
1.756200000000000000e+04
1.788200000000000000e+04
1.761300000000000000e+04
1.685400000000000000e+04
1.581000000000000000e+04
1.466700000000000000e+04
1.354400000000000000e+04
1.250600000000000000e+04
1.159500000000000000e+04
1.084800000000000000e+04
1.031100000000000000e+04
1.002200000000000000e+04
9.981000000000000000e+03
1.010100000000000000e+04
1.020900000000000000e+04
1.009500000000000000e+04
9.613000000000000000e+03
8.741000000000000000e+03
7.600000000000000000e+03
6.403000000000000000e+03
5.382000000000000000e+03
4.709000000000000000e+03
4.447000000000000000e+03
4.535000000000000000e+03
4.824000000000000000e+03
5.153000000000000000e+03
5.402000000000000000e+03
5.497000000000000000e+03
5.399000000000000000e+03
5.081000000000000000e+03
4.566000000000000000e+03
3.957000000000000000e+03
3.434000000000000000e+03
3.177000000000000000e+03
3.277000000000000000e+03
3.692000000000000000e+03
4.278000000000000000e+03
4.867000000000000000e+03
5.333000000000000000e+03
5.614000000000000000e+03
5.711000000000000000e+03
5.657000000000000000e+03
5.477000000000000000e+03
5.148000000000000000e+03
4.617000000000000000e+03
3.867000000000000000e+03
3.007000000000000000e+03
2.264000000000000000e+03
1.854000000000000000e+03
1.813000000000000000e+03
1.941000000000000000e+03
1.931000000000000000e+03
1.588000000000000000e+03
9.530000000000000000e+02
2.150000000000000000e+02
-4.680000000000000000e+02
-1.096000000000000000e+03
-1.780000000000000000e+03
-2.599000000000000000e+03
-3.507000000000000000e+03
-4.368000000000000000e+03
-5.070000000000000000e+03
-5.603000000000000000e+03
-6.049000000000000000e+03
-6.519000000000000000e+03
-7.084000000000000000e+03
-7.757000000000000000e+03
-8.489000000000000000e+03
-9.201000000000000000e+03
-9.818000000000000000e+03
-1.031100000000000000e+04
-1.071000000000000000e+04
-1.106100000000000000e+04
-1.137200000000000000e+04
-1.158200000000000000e+04
-1.161300000000000000e+04
-1.144300000000000000e+04
-1.114500000000000000e+04
-1.084100000000000000e+04
-1.061300000000000000e+04
-1.045600000000000000e+04
-1.030000000000000000e+04
-1.008100000000000000e+04
-9.792000000000000000e+03
-9.473000000000000000e+03
-9.164000000000000000e+03
-8.871000000000000000e+03
-8.564000000000000000e+03
-8.208000000000000000e+03
-7.781000000000000000e+03
-7.283000000000000000e+03
-6.727000000000000000e+03
-6.128000000000000000e+03
-5.507000000000000000e+03
-4.893000000000000000e+03
-4.320000000000000000e+03
-3.807000000000000000e+03
-3.354000000000000000e+03
-2.933000000000000000e+03
-2.517000000000000000e+03
-2.106000000000000000e+03
-1.735000000000000000e+03
-1.440000000000000000e+03
-1.228000000000000000e+03
-1.056000000000000000e+03
-8.640000000000000000e+02
-6.330000000000000000e+02
-3.990000000000000000e+02
-2.270000000000000000e+02
-1.540000000000000000e+02
-1.550000000000000000e+02
-1.640000000000000000e+02
-1.320000000000000000e+02
-5.400000000000000000e+01
4.400000000000000000e+01
1.380000000000000000e+02
2.330000000000000000e+02
3.580000000000000000e+02
5.320000000000000000e+02
7.520000000000000000e+02
9.880000000000000000e+02
1.199000000000000000e+03
1.353000000000000000e+03
1.442000000000000000e+03
1.480000000000000000e+03
1.504000000000000000e+03
1.556000000000000000e+03
1.664000000000000000e+03
1.836000000000000000e+03
2.060000000000000000e+03
2.317000000000000000e+03
2.595000000000000000e+03
2.891000000000000000e+03
3.220000000000000000e+03
3.597000000000000000e+03
4.019000000000000000e+03
4.454000000000000000e+03
4.839000000000000000e+03
5.118000000000000000e+03
5.283000000000000000e+03
5.385000000000000000e+03
5.502000000000000000e+03
5.687000000000000000e+03
5.934000000000000000e+03
6.196000000000000000e+03
6.424000000000000000e+03
6.598000000000000000e+03
6.725000000000000000e+03
6.815000000000000000e+03
6.862000000000000000e+03
6.845000000000000000e+03
6.742000000000000000e+03
6.542000000000000000e+03
6.259000000000000000e+03
5.933000000000000000e+03
5.622000000000000000e+03
5.371000000000000000e+03
5.191000000000000000e+03
5.047000000000000000e+03
4.878000000000000000e+03
4.634000000000000000e+03
4.296000000000000000e+03
3.871000000000000000e+03
3.375000000000000000e+03
2.811000000000000000e+03
2.182000000000000000e+03
1.504000000000000000e+03
8.170000000000000000e+02
1.730000000000000000e+02
-3.780000000000000000e+02
-8.070000000000000000e+02
-1.127000000000000000e+03
-1.388000000000000000e+03
-1.664000000000000000e+03
-2.022000000000000000e+03
-2.477000000000000000e+03
-2.989000000000000000e+03
-3.492000000000000000e+03
-3.940000000000000000e+03
-4.332000000000000000e+03
-4.697000000000000000e+03
-5.058000000000000000e+03
-5.403000000000000000e+03
-5.696000000000000000e+03
-5.900000000000000000e+03
-6.008000000000000000e+03
-6.048000000000000000e+03
-6.074000000000000000e+03
-6.143000000000000000e+03
-6.288000000000000000e+03
-6.495000000000000000e+03
-6.712000000000000000e+03
-6.875000000000000000e+03
-6.946000000000000000e+03
-6.941000000000000000e+03
-6.909000000000000000e+03
-6.902000000000000000e+03
-6.940000000000000000e+03
-7.012000000000000000e+03
-7.088000000000000000e+03
-7.144000000000000000e+03
-7.173000000000000000e+03
-7.191000000000000000e+03
-7.231000000000000000e+03
-7.320000000000000000e+03
-7.464000000000000000e+03
-7.632000000000000000e+03
-7.785000000000000000e+03
-7.897000000000000000e+03
-7.979000000000000000e+03
-8.056000000000000000e+03
-8.141000000000000000e+03
-8.215000000000000000e+03
-8.246000000000000000e+03
-8.232000000000000000e+03
-8.211000000000000000e+03
-8.235000000000000000e+03
-8.324000000000000000e+03
-8.446000000000000000e+03
-8.543000000000000000e+03
-8.580000000000000000e+03
-8.572000000000000000e+03
-8.559000000000000000e+03
-8.567000000000000000e+03
-8.582000000000000000e+03
-8.561000000000000000e+03
-8.469000000000000000e+03
-8.301000000000000000e+03
-8.085000000000000000e+03
-7.866000000000000000e+03
-7.686000000000000000e+03
-7.559000000000000000e+03
-7.454000000000000000e+03
-7.311000000000000000e+03
-7.072000000000000000e+03
-6.732000000000000000e+03
-6.349000000000000000e+03
-5.998000000000000000e+03
-5.701000000000000000e+03
-5.407000000000000000e+03
-5.037000000000000000e+03
-4.567000000000000000e+03
-4.064000000000000000e+03
-3.638000000000000000e+03
-3.362000000000000000e+03
-3.209000000000000000e+03
-3.084000000000000000e+03
-2.886000000000000000e+03
-2.574000000000000000e+03
-2.170000000000000000e+03
-1.729000000000000000e+03
-1.309000000000000000e+03
-9.450000000000000000e+02
-6.490000000000000000e+02
-4.140000000000000000e+02
-2.220000000000000000e+02
-5.800000000000000000e+01
8.300000000000000000e+01
1.980000000000000000e+02
2.800000000000000000e+02
3.330000000000000000e+02
3.700000000000000000e+02
4.130000000000000000e+02
4.850000000000000000e+02
5.950000000000000000e+02
7.250000000000000000e+02
8.290000000000000000e+02
8.580000000000000000e+02
7.990000000000000000e+02
6.890000000000000000e+02
5.780000000000000000e+02
4.680000000000000000e+02
3.100000000000000000e+02
7.600000000000000000e+01
-1.450000000000000000e+02
-1.440000000000000000e+02
2.820000000000000000e+02
1.165000000000000000e+03
2.304000000000000000e+03
3.395000000000000000e+03
4.222000000000000000e+03
4.776000000000000000e+03
5.204000000000000000e+03
5.660000000000000000e+03
6.192000000000000000e+03
6.740000000000000000e+03
7.202000000000000000e+03
7.526000000000000000e+03
7.764000000000000000e+03
8.083000000000000000e+03
8.703000000000000000e+03
9.760000000000000000e+03
1.116600000000000000e+04
1.259800000000000000e+04
1.367600000000000000e+04
1.421100000000000000e+04
1.432600000000000000e+04
1.432400000000000000e+04
1.442500000000000000e+04
1.461800000000000000e+04
1.475800000000000000e+04
1.479400000000000000e+04
1.487600000000000000e+04
1.524500000000000000e+04
1.598600000000000000e+04
1.691300000000000000e+04
1.766200000000000000e+04
1.791900000000000000e+04
1.758200000000000000e+04
1.676800000000000000e+04
1.570200000000000000e+04
1.460300000000000000e+04
1.361600000000000000e+04
1.280800000000000000e+04
1.218100000000000000e+04
1.171900000000000000e+04
1.141800000000000000e+04
1.130000000000000000e+04
1.136300000000000000e+04
1.153200000000000000e+04
1.164100000000000000e+04
1.148500000000000000e+04
1.092300000000000000e+04
9.949000000000000000e+03
8.709000000000000000e+03
7.453000000000000000e+03
6.443000000000000000e+03
5.857000000000000000e+03
5.719000000000000000e+03
5.892000000000000000e+03
6.153000000000000000e+03
6.318000000000000000e+03
6.310000000000000000e+03
6.141000000000000000e+03
5.842000000000000000e+03
5.404000000000000000e+03
4.818000000000000000e+03
4.148000000000000000e+03
3.557000000000000000e+03
3.226000000000000000e+03
3.248000000000000000e+03
3.565000000000000000e+03
4.019000000000000000e+03
4.451000000000000000e+03
4.775000000000000000e+03
4.971000000000000000e+03
5.039000000000000000e+03
4.965000000000000000e+03
4.713000000000000000e+03
4.249000000000000000e+03
3.577000000000000000e+03
2.761000000000000000e+03
1.945000000000000000e+03
1.315000000000000000e+03
1.005000000000000000e+03
1.002000000000000000e+03
1.132000000000000000e+03
1.158000000000000000e+03
9.310000000000000000e+02
4.720000000000000000e+02
-8.800000000000000000e+01
-6.400000000000000000e+02
-1.178000000000000000e+03
-1.782000000000000000e+03
-2.509000000000000000e+03
-3.332000000000000000e+03
-4.151000000000000000e+03
-4.867000000000000000e+03
-5.436000000000000000e+03
-5.886000000000000000e+03
-6.287000000000000000e+03
-6.711000000000000000e+03
-7.209000000000000000e+03
-7.784000000000000000e+03
-8.392000000000000000e+03
-8.973000000000000000e+03
-9.483000000000000000e+03
-9.923000000000000000e+03
-1.031400000000000000e+04
-1.065600000000000000e+04
-1.090800000000000000e+04
-1.101400000000000000e+04
-1.095500000000000000e+04
-1.077000000000000000e+04
-1.054200000000000000e+04
-1.033600000000000000e+04
-1.017000000000000000e+04
-1.002500000000000000e+04
-9.884000000000000000e+03
-9.754000000000000000e+03
-9.651000000000000000e+03
-9.564000000000000000e+03
-9.445000000000000000e+03
-9.228000000000000000e+03
-8.884000000000000000e+03
-8.431000000000000000e+03
-7.919000000000000000e+03
-7.386000000000000000e+03
-6.834000000000000000e+03
-6.247000000000000000e+03
-5.634000000000000000e+03
-5.046000000000000000e+03
-4.540000000000000000e+03
-4.136000000000000000e+03
-3.796000000000000000e+03
-3.452000000000000000e+03
-3.065000000000000000e+03
-2.655000000000000000e+03
-2.273000000000000000e+03
-1.954000000000000000e+03
-1.682000000000000000e+03
-1.415000000000000000e+03
-1.124000000000000000e+03
-8.230000000000000000e+02
-5.520000000000000000e+02
-3.450000000000000000e+02
-1.970000000000000000e+02
-7.500000000000000000e+01
5.300000000000000000e+01
1.950000000000000000e+02
3.500000000000000000e+02
5.190000000000000000e+02
7.190000000000000000e+02
9.630000000000000000e+02
1.236000000000000000e+03
1.487000000000000000e+03
1.665000000000000000e+03
1.753000000000000000e+03
1.789000000000000000e+03
1.830000000000000000e+03
1.910000000000000000e+03
2.010000000000000000e+03
2.091000000000000000e+03
2.136000000000000000e+03
2.178000000000000000e+03
2.278000000000000000e+03
2.469000000000000000e+03
2.731000000000000000e+03
3.014000000000000000e+03
3.279000000000000000e+03
3.527000000000000000e+03
3.781000000000000000e+03
4.048000000000000000e+03
4.300000000000000000e+03
4.493000000000000000e+03
4.601000000000000000e+03
4.641000000000000000e+03
4.660000000000000000e+03
4.710000000000000000e+03
4.823000000000000000e+03
4.996000000000000000e+03
5.201000000000000000e+03
5.391000000000000000e+03
5.528000000000000000e+03
5.590000000000000000e+03
5.587000000000000000e+03
5.536000000000000000e+03
5.448000000000000000e+03
5.316000000000000000e+03
5.129000000000000000e+03
4.896000000000000000e+03
4.658000000000000000e+03
4.465000000000000000e+03
4.345000000000000000e+03
4.283000000000000000e+03
4.228000000000000000e+03
4.118000000000000000e+03
3.904000000000000000e+03
3.568000000000000000e+03
3.123000000000000000e+03
2.607000000000000000e+03
2.063000000000000000e+03
1.524000000000000000e+03
1.003000000000000000e+03
5.000000000000000000e+02
1.900000000000000000e+01
-4.260000000000000000e+02
-8.190000000000000000e+02
-1.165000000000000000e+03
-1.492000000000000000e+03
-1.843000000000000000e+03
-2.243000000000000000e+03
-2.690000000000000000e+03
-3.159000000000000000e+03
-3.621000000000000000e+03
-4.061000000000000000e+03
-4.476000000000000000e+03
-4.873000000000000000e+03
-5.256000000000000000e+03
-5.623000000000000000e+03
-5.956000000000000000e+03
-6.234000000000000000e+03
-6.444000000000000000e+03
-6.602000000000000000e+03
-6.747000000000000000e+03
-6.922000000000000000e+03
-7.140000000000000000e+03
-7.375000000000000000e+03
-7.584000000000000000e+03
-7.733000000000000000e+03
-7.826000000000000000e+03
-7.896000000000000000e+03
-7.980000000000000000e+03
-8.095000000000000000e+03
-8.230000000000000000e+03
-8.351000000000000000e+03
-8.418000000000000000e+03
-8.411000000000000000e+03
-8.345000000000000000e+03
-8.271000000000000000e+03
-8.244000000000000000e+03
-8.295000000000000000e+03
-8.414000000000000000e+03
-8.555000000000000000e+03
-8.663000000000000000e+03
-8.701000000000000000e+03
-8.665000000000000000e+03
-8.591000000000000000e+03
-8.533000000000000000e+03
-8.530000000000000000e+03
-8.573000000000000000e+03
-8.605000000000000000e+03
-8.564000000000000000e+03
-8.448000000000000000e+03
-8.323000000000000000e+03
-8.281000000000000000e+03
-8.357000000000000000e+03
-8.492000000000000000e+03
-8.576000000000000000e+03
-8.538000000000000000e+03
-8.393000000000000000e+03
-8.219000000000000000e+03
-8.083000000000000000e+03
-7.994000000000000000e+03
-7.913000000000000000e+03
-7.796000000000000000e+03
-7.639000000000000000e+03
-7.463000000000000000e+03
-7.296000000000000000e+03
-7.142000000000000000e+03
-6.987000000000000000e+03
-6.812000000000000000e+03
-6.607000000000000000e+03
-6.366000000000000000e+03
-6.089000000000000000e+03
-5.779000000000000000e+03
-5.444000000000000000e+03
-5.104000000000000000e+03
-4.787000000000000000e+03
-4.513000000000000000e+03
-4.290000000000000000e+03
-4.100000000000000000e+03
-3.913000000000000000e+03
-3.692000000000000000e+03
-3.410000000000000000e+03
-3.064000000000000000e+03
-2.675000000000000000e+03
-2.286000000000000000e+03
-1.937000000000000000e+03
-1.653000000000000000e+03
-1.427000000000000000e+03
-1.232000000000000000e+03
-1.042000000000000000e+03
-8.480000000000000000e+02
-6.560000000000000000e+02
-4.770000000000000000e+02
-3.120000000000000000e+02
-1.520000000000000000e+02
8.000000000000000000e+00
1.640000000000000000e+02
3.100000000000000000e+02
4.500000000000000000e+02
5.950000000000000000e+02
7.400000000000000000e+02
8.340000000000000000e+02
8.020000000000000000e+02
6.000000000000000000e+02
2.750000000000000000e+02
-3.100000000000000000e+01
-1.250000000000000000e+02
1.420000000000000000e+02
8.100000000000000000e+02
1.798000000000000000e+03
2.927000000000000000e+03
3.988000000000000000e+03
4.827000000000000000e+03
5.414000000000000000e+03
5.837000000000000000e+03
6.223000000000000000e+03
6.629000000000000000e+03
7.004000000000000000e+03
7.267000000000000000e+03
7.431000000000000000e+03
7.655000000000000000e+03
8.156000000000000000e+03
9.054000000000000000e+03
1.027400000000000000e+04
1.158800000000000000e+04
1.273600000000000000e+04
1.354700000000000000e+04
1.397600000000000000e+04
1.408500000000000000e+04
1.400000000000000000e+04
1.386400000000000000e+04
1.379600000000000000e+04
1.387100000000000000e+04
1.412300000000000000e+04
1.457500000000000000e+04
1.523600000000000000e+04
1.606000000000000000e+04
1.688900000000000000e+04
1.746800000000000000e+04
1.755400000000000000e+04
1.705900000000000000e+04
1.611300000000000000e+04
1.498500000000000000e+04
1.392700000000000000e+04
1.306900000000000000e+04
1.242400000000000000e+04
1.197200000000000000e+04
1.172300000000000000e+04
1.169400000000000000e+04
1.185500000000000000e+04
1.208200000000000000e+04
1.220000000000000000e+04
1.205300000000000000e+04
1.157100000000000000e+04
1.077600000000000000e+04
9.756000000000000000e+03
8.635000000000000000e+03
7.563000000000000000e+03
6.705000000000000000e+03
6.205000000000000000e+03
6.120000000000000000e+03
6.363000000000000000e+03
6.719000000000000000e+03
6.936000000000000000e+03
6.846000000000000000e+03
6.436000000000000000e+03
5.816000000000000000e+03
5.131000000000000000e+03
4.486000000000000000e+03
3.933000000000000000e+03
3.513000000000000000e+03
3.277000000000000000e+03
3.267000000000000000e+03
3.477000000000000000e+03
3.834000000000000000e+03
4.219000000000000000e+03
4.520000000000000000e+03
4.662000000000000000e+03
4.608000000000000000e+03
4.345000000000000000e+03
3.884000000000000000e+03
3.259000000000000000e+03
2.531000000000000000e+03
1.785000000000000000e+03
1.119000000000000000e+03
6.250000000000000000e+02
3.670000000000000000e+02
3.360000000000000000e+02
4.250000000000000000e+02
4.490000000000000000e+02
2.400000000000000000e+02
-2.540000000000000000e+02
-9.320000000000000000e+02
-1.627000000000000000e+03
-2.239000000000000000e+03
-2.799000000000000000e+03
-3.414000000000000000e+03
-4.139000000000000000e+03
-4.902000000000000000e+03
-5.565000000000000000e+03
-6.044000000000000000e+03
-6.378000000000000000e+03
-6.698000000000000000e+03
-7.109000000000000000e+03
-7.624000000000000000e+03
-8.184000000000000000e+03
-8.735000000000000000e+03
-9.270000000000000000e+03
-9.815000000000000000e+03
-1.036600000000000000e+04
-1.086300000000000000e+04
-1.122500000000000000e+04
-1.139500000000000000e+04
-1.138100000000000000e+04
-1.123800000000000000e+04
-1.103700000000000000e+04
-1.083200000000000000e+04
-1.065300000000000000e+04
-1.051000000000000000e+04
-1.040200000000000000e+04
-1.032500000000000000e+04
-1.027500000000000000e+04
-1.024700000000000000e+04
-1.022100000000000000e+04
