-4.42652365e-01,4.38636185e+00,-4.42652365e-01,4.38636185e+00,-4.42652365e-01,4.38636185e+00,-4.42652365e-01,4.38636185e+00,-4.42652365e-01,4.38636185e+00,7.66867214e+00,2.50474729e+01,3.28388504e+01,4.00373816e+01,4.64863264e+01,4.96341708e+01,5.37434165e+01,5.50831224e+01,5.54020363e+01,5.68196324e+01,5.92193699e+01,6.09197012e+01,6.37084980e+01,6.58718011e+01,6.66391216e+01,6.87258834e+01,6.96686705e+01,7.00590717e+01,7.09074851e+01,7.20390195e+01,7.26671290e+01,7.31032068e+01,7.32776511e+01,7.33554186e+01,7.21487241e+01,7.03895670e+01,6.91859483e+01,6.67681059e+01,6.30301168e+01,6.26518203e+01,6.18382671e+01,6.08671382e+01,6.07555997e+01,6.03639529e+01,5.96594219e+01,5.91504321e+01,5.90219677e+01,5.88655860e+01,5.85560103e+01,5.71949894e+01,5.80218611e+01,5.78828390e+01,5.65324352e+01,5.56347308e+01,5.55061617e+01,5.51533572e+01,5.17729208e+01,5.10268012e+01,5.03429928e+01,4.83568995e+01,4.85792488e+01,4.52345952e+01,4.63433258e+01,4.61526260e+01,4.52035126e+01,4.46757710e+01,4.53698729e+01,4.74422650e+01,4.43930390e+01,3.88992620e+01
-1.48615084e+01,-1.45889145e+01,-1.48615084e+01,-1.45889145e+01,-1.48615084e+01,-1.45889145e+01,-1.48615084e+01,-1.45889145e+01,-1.48615084e+01,-1.45889145e+01,-3.12337830e+00,1.41667695e+00,1.03213791e+01,1.50580319e+01,1.22665299e+01,1.25481169e+01,7.14333837e+00,6.86022113e+00,1.07687213e+01,1.08205126e+01,8.82037601e+00,9.16431870e+00,9.25057279e+00,8.95813494e+00,8.26155678e+00,5.78431251e+00,4.03860504e+00,3.61343855e+00,1.61741957e+00,2.25353765e-01,-9.74272811e-01,-2.18255346e+00,-2.52768295e+00,-2.20752303e+00,-1.48092945e-01,2.51645975e+00,3.22833325e+00,4.60151931e+00,5.89247000e+00,5.01340178e+00,4.46277386e+00,5.29233797e+00,4.73742855e+00,5.01872483e+00,5.40866626e+00,5.47126652e+00,3.49801376e+00,3.32943336e+00,4.34163401e+00,3.06657989e+00,2.27251803e+00,2.37682816e+00,3.16164673e+00,3.17825735e+00,2.98069511e+00,4.23715469e+00,3.50711009e+00,3.87777449e+00,3.47511450e+00,4.22774351e+00,2.02450969e+00,1.16723145e+00,4.53216444e+00,4.58342927e+00,6.19123934e+00,6.30077597e+00,3.02337722e+00,-1.13218357e+00,2.35096189e+00,4.06554371e+00
-1.51152565e+00,-1.06457880e+00,-1.51152565e+00,-1.06457880e+00,-1.51152565e+00,-1.06457880e+00,-1.51152565e+00,-1.06457880e+00,-1.51152565e+00,-1.06457880e+00,4.24891401e+00,6.71784313e+00,1.32556218e+01,1.20835118e+01,1.16585177e+01,1.18425488e+01,1.34740506e+01,1.35604180e+01,8.47241851e+00,9.75269314e+00,1.13562914e+01,1.11469072e+01,9.52815588e+00,6.28873540e+00,4.24288243e+00,6.06059533e-02,-5.67119489e+00,-7.79830412e+00,-7.58791020e+00,-1.07169834e+01,-1.21163937e+01,-1.31783862e+01,-1.32283010e+01,-1.38894099e+01,-1.50802905e+01,-1.41324741e+01,-1.03303955e+01,-6.12137494e+00,-9.48338130e-01,8.53661217e-01,1.79183579e+00,9.35393300e-01,1.15056190e+00,2.43202155e+00,2.16055202e+00,2.24225095e+00,5.01200623e+00,6.76608787e+00,4.47578967e+00,6.67038633e+00,5.93216781e+00,6.47045826e+00,5.41909746e+00,5.53331922e+00,6.67471261e+00,6.71661534e+00,5.85863310e+00,5.97385525e+00,8.79905249e+00,8.90878811e+00,9.53806085e+00,4.10272096e+00,6.29962338e+00,7.08229238e+00,6.17803292e+00,6.39028893e+00,7.75401987e+00,7.42350480e+00,4.65864643e+00,7.56637610e+00
-3.63545053e+00,-3.00349447e+00,-3.63545053e+00,-3.00349447e+00,-3.63545053e+00,-3.00349447e+00,-3.63545053e+00,-3.00349447e+00,-3.63545053e+00,-3.00349447e+00,-6.46890487e+00,-1.94750674e+00,-8.89609726e-01,-8.29121034e+00,-1.04649755e+01,-1.33514368e+01,-9.39612805e+00,-1.07182389e+01,-7.68212878e+00,-1.12996254e+01,-1.38154977e+01,-1.48066131e+01,-2.01327433e+01,-2.14028142e+01,-2.58360485e+01,-2.53864864e+01,-2.56046253e+01,-2.43791900e+01,-2.10398134e+01,-1.78227929e+01,-1.46069779e+01,-1.19727256e+01,-8.65355231e+00,-6.61266794e+00,-2.97772783e+00,-2.50743833e+00,-2.01736287e+00,-2.13354698e+00,1.14633353e+00,-4.53201010e-01,3.05029831e+00,2.33975119e+00,2.45387734e+00,-1.86491988e-01,1.92921151e+00,1.38168767e+00,1.76499313e+00,9.98005497e-01,2.09361617e+00,4.63209067e+00,1.98084096e+00,2.39802614e+00,4.72613992e+00,2.79235924e+00,3.78071417e+00,5.41215917e+00,8.07621143e+00,6.89325561e+00,6.16427924e+00,5.11317459e+00,9.11817033e+00,4.95822334e+00,6.70599352e+00,7.75253603e+00,7.35844002e+00,6.28268594e+00,3.37445879e+00,2.65096501e+00,2.97948356e+00,9.10741555e-01
-3.61885445e-01,4.94090870e-01,-3.61885445e-01,4.94090870e-01,-3.61885445e-01,4.94090870e-01,-3.61885445e-01,4.94090870e-01,-3.61885445e-01,4.94090870e-01,-4.18909681e+00,3.75626314e+00,-1.72505868e+00,1.10280223e+00,5.30073314e+00,8.63742375e+00,4.62691024e+00,3.44895846e+00,9.17102164e-01,1.96247340e+00,4.22635498e+00,3.43989369e+00,3.74859068e+00,5.96724585e-01,3.11558288e-01,1.84027957e+00,6.32557154e+00,9.97025605e+00,9.68499817e+00,1.10194071e+01,1.23075811e+01,1.24651791e+01,1.10340349e+01,6.98880976e+00,4.69305466e+00,4.86477129e+00,3.04530452e+00,4.59509166e+00,-1.25846188e-01,1.25325594e+00,-5.48237359e-01,1.25880706e+00,3.76019861e+00,5.16668940e+00,1.41803801e+00,1.28409458e+00,3.59077176e+00,7.58735805e-01,2.05364744e+00,3.24596261e+00,1.58366934e+00,2.25190465e+00,6.37744031e+00,6.18274044e+00,1.23111173e+00,-2.47982450e+00,-1.08141791e+00,-8.03007984e-01,-5.49675870e+00,6.57247026e-02,-2.17176346e+00,3.64166885e+00,1.68940966e+00,5.01190246e+00,1.72420499e+00,5.76836305e-01,2.91036858e+00,-3.02093214e+00,-1.84223553e+00,8.34065601e-02
-1.56315312e+00,-6.52002827e-01,-1.56315312e+00,-6.52002827e-01,-1.56315312e+00,-6.52002827e-01,-1.56315312e+00,-6.52002827e-01,-1.56315312e+00,-6.52002827e-01,-5.73084938e+00,4.41354603e-01,4.21560680e+00,2.69575545e+00,-2.21736807e-01,1.55640944e+00,2.06274912e+00,2.37578404e+00,3.28960670e+00,-1.91819232e+00,-1.41084032e+00,-5.53535344e+00,-8.73178416e+00,-8.38779807e+00,-7.98634446e+00,-2.45104080e+00,1.38589530e+00,1.21791280e+00,2.78669090e+00,3.21643173e+00,8.41640871e-01,4.44930661e-01,-1.42462133e+00,-9.40861312e-01,-1.29597981e+00,-5.03837962e+00,-7.90123809e+00,-1.20511780e+01,-9.32081178e+00,-5.54976577e+00,-4.09622728e+00,-4.03667085e+00,-5.08472943e+00,-4.00425425e+00,-2.48875075e+00,-1.92566412e+00,-4.36865992e+00,-5.10913134e+00,-6.54348169e+00,-5.92208703e+00,-1.03443629e+00,-4.21256781e+00,-5.38054173e+00,-1.88574874e+00,-1.62892344e+00,-3.92113770e+00,-3.29408589e+00,-2.98516989e+00,-2.15353799e+00,-2.59973732e-01,1.20776256e+00,3.43166260e-02,-4.77134186e+00,-4.08874524e+00,-9.58568327e+00,-1.05404412e+01,-1.52215091e+01,-1.33739788e+01,-1.47310869e+01,-1.22115689e+01
1.38653589e-01,1.12994103e+00,1.38653589e-01,1.12994103e+00,1.38653589e-01,1.12994103e+00,1.38653589e-01,1.12994103e+00,1.38653589e-01,1.12994103e+00,-2.07045334e+00,-6.82736611e+00,-1.23370833e+00,-3.03155085e+00,-2.77934310e+00,-1.15191495e+01,-6.73320978e+00,-6.80767015e+00,-5.98967636e+00,-2.68419066e+00,-5.52526064e+00,1.62468061e-01,-9.16652664e-01,2.41477178e+00,2.80264988e+00,6.65828493e+00,4.89082380e+00,3.18277925e+00,-6.81456830e-01,-2.79656713e+00,-4.61972568e+00,-6.76178848e+00,-6.55975730e+00,-5.62598783e+00,-3.91026253e+00,-1.02679515e+00,1.69542020e+00,-1.21693938e+00,-7.26526439e+00,-1.03035608e+01,-7.89960195e+00,-7.31751547e+00,-1.00243585e+01,-1.17137175e+01,-9.01669205e+00,-8.93675032e+00,-7.68489255e+00,-7.20209549e+00,-6.31952028e+00,-9.39431414e+00,-6.15244457e+00,-9.04291006e+00,-1.44176519e+01,-1.13974246e+01,-1.26887394e+01,-5.85467501e+00,-2.92297359e+00,-4.53959007e+00,-6.80684935e+00,-6.55993046e+00,-2.60662723e+00,-5.63703405e+00,-1.03430849e+01,-1.29054881e+01,-1.04680669e+01,-1.04592935e+01,-6.92705403e+00,-3.92074790e+00,-6.71228062e+00,-8.56438211e+00
-7.06443088e-01,4.73687192e-01,-7.06443088e-01,4.73687192e-01,-7.06443088e-01,4.73687192e-01,-7.06443088e-01,4.73687192e-01,-7.06443088e-01,4.73687192e-01,4.16335905e+00,7.55965443e+00,-1.82971127e+00,-5.07797908e+00,-7.57401603e+00,-4.25634752e+00,-3.67201079e+00,-2.27174068e+00,-3.27782777e+00,-4.72891887e+00,-6.14940119e+00,-9.39425351e+00,-6.50826196e+00,-4.49898794e+00,6.63136388e-01,-3.65003663e-01,-6.81213580e-01,-3.42535234e+00,-1.48414928e+00,-4.45090580e-01,4.74133548e-02,2.25458357e+00,3.94256340e+00,3.51744908e+00,5.05977612e+00,5.26920076e+00,6.14575241e+00,7.00438093e+00,1.07940395e+01,8.83508529e+00,3.16090489e+00,3.27224655e+00,6.85502438e+00,3.67021158e+00,4.50420890e+00,3.47362737e+00,3.59371896e-01,6.23179506e+00,6.10334818e+00,6.59331144e+00,2.36225607e+00,3.59047267e+00,1.91136817e+00,9.93297843e-01,1.69107887e+00,-4.90546518e+00,-3.43789326e+00,1.34447842e+00,1.20744685e+00,-5.89168446e-01,9.35291255e-01,3.15620848e+00,-1.34020041e+00,-2.74373542e+00,6.27239327e-01,-1.95985564e-01,-3.52787058e+00,-7.39131829e+00,-8.15862539e+00,-1.16612341e+01
2.73865002e-01,1.80206660e+00,2.73865002e-01,1.80206660e+00,2.73865002e-01,1.80206660e+00,2.73865002e-01,1.80206660e+00,2.73865002e-01,1.80206660e+00,-2.63581231e-01,-7.13768300e+00,-1.23566357e+01,-1.24011073e+01,-1.63924100e+01,-1.25931314e+01,-8.77669249e+00,-9.15923954e+00,-6.75755341e+00,-1.69075468e+00,-7.12900954e+00,-9.40003097e+00,-2.98771295e+00,-4.35447145e-01,6.82093275e-01,-4.86742866e+00,-2.66974497e+00,-2.26082969e+00,-1.70194399e+00,-4.85714482e-01,8.97485336e-01,6.61102927e-01,-1.80515158e-01,-6.02072890e-01,-4.15408966e+00,-5.18725632e+00,-7.65678781e+00,-7.15533350e+00,-7.87714663e+00,-7.63892437e+00,-9.36177088e+00,-6.71951985e+00,-8.32087543e+00,-2.64728580e+00,-7.13610543e+00,-2.58707975e+00,-4.16237588e+00,-8.04665129e+00,-6.68105358e+00,-2.85055096e+00,-4.92639189e+00,-3.72717817e+00,-1.56432957e+00,1.13130795e+00,4.15769773e+00,-1.26714321e+00,-7.05756094e+00,-2.31317012e+00,-6.10957240e+00,-1.06999103e+01,-1.41969372e+01,-5.59620640e+00,-7.20480100e+00,-8.47803909e+00,-6.51635926e+00,-7.02050339e+00,-6.81918877e+00,-1.12671188e+01,-4.94345352e+00,2.33168225e+00
-1.56364888e-01,9.86079314e-01,-1.56364888e-01,9.86079314e-01,-1.56364888e-01,9.86079314e-01,-1.56364888e-01,9.86079314e-01,-1.56364888e-01,9.86079314e-01,-6.05980979e+00,-3.39668115e+00,-5.99718945e+00,-2.52610317e+00,3.84959825e-01,-4.90381652e+00,-1.13339255e+01,-1.07277777e+01,-9.23522381e+00,-1.08607585e+01,-1.04099977e+01,-8.20271085e+00,-4.87671325e+00,-3.78030689e-01,2.96451194e+00,3.90500040e+00,3.03399185e+00,2.38865573e+00,1.92099133e+00,-1.98302172e-01,-2.25921859e+00,-4.61979036e+00,-6.09488203e+00,-4.59826611e+00,-3.45340357e+00,-2.35423673e+00,6.20303508e-01,4.77142489e+00,3.19210262e+00,4.37399411e+00,9.65698990e+00,5.54681845e+00,6.09486515e+00,2.36135226e+00,1.13394873e+00,-8.56884555e-01,6.05184756e+00,3.90491282e+00,4.43973737e+00,1.80439835e+00,7.74478791e+00,6.96976991e+00,8.17843575e+00,8.23956546e+00,6.60352117e+00,5.87583800e+00,2.13670955e+00,7.14701044e+00,6.85540833e+00,4.16468482e+00,3.21841335e-01,4.07704054e+00,-2.44059441e+00,-1.52034782e+00,-9.15727975e-01,-2.63220083e+00,-5.24137590e+00,-4.17427036e-01,4.99956797e+00,2.96381837e+00
2.75020952e-01,1.23192767e+00,2.75020952e-01,1.23192767e+00,2.75020952e-01,1.23192767e+00,2.75020952e-01,1.23192767e+00,2.75020952e-01,1.23192767e+00,-1.68330883e+00,-8.56595273e-01,-3.21080401e+00,-4.23659554e+00,-3.56304036e+00,-2.42912892e+00,-1.00045520e+00,-3.50433111e+00,-4.77929068e+00,-3.84692782e+00,-1.39518983e+00,2.21851732e-01,-3.24432700e+00,-8.15840797e-01,1.54034152e+00,8.53066226e-01,-3.38417560e+00,-6.76130848e+00,-7.74892536e+00,-8.01816139e+00,-9.22736385e+00,-7.12188038e+00,-4.66891452e+00,-2.92979068e+00,-1.57034114e+00,1.12000066e+00,-1.69151856e+00,-3.65986780e+00,-2.42392246e+00,-2.50740823e+00,-1.50691031e+00,-1.68941923e+00,-5.62085617e+00,-5.64695022e+00,-2.75598973e+00,-8.09816312e-02,-4.34419870e+00,-5.40410335e+00,-4.24205783e+00,-3.04515502e+00,-5.86341023e+00,-7.69687357e+00,-4.11596992e+00,-6.53903705e+00,-4.31033980e+00,-1.10433985e+01,-3.89714445e+00,-5.56082128e+00,-3.90375359e+00,-3.07389952e+00,-7.22946736e+00,-4.98314553e+00,-2.53208508e+00,-3.58843927e+00,-6.61078576e+00,-5.21154339e-01,-7.95746329e-01,5.42155902e+00,9.64858068e-01,7.98254026e-01
2.10388973e-01,1.87638589e+00,2.10388973e-01,1.87638589e+00,2.10388973e-01,1.87638589e+00,2.10388973e-01,1.87638589e+00,2.10388973e-01,1.87638589e+00,2.84778280e+00,-2.95079893e+00,-6.31866651e+00,2.36316679e+00,7.35440619e+00,8.49491357e+00,5.54168048e+00,7.20231941e+00,5.23222791e+00,8.39598933e+00,8.94867461e+00,9.23241288e+00,9.93059754e+00,3.13245147e+00,-4.90110770e-01,-2.63095760e+00,-4.46868344e+00,-3.54562985e+00,-1.67441602e+00,-3.43622542e-01,3.35359835e+00,3.12325720e+00,3.10480228e+00,2.65574822e+00,1.15733698e+00,-4.11928278e+00,-3.52421041e+00,-4.28910321e+00,-5.69337121e+00,-4.66171130e+00,-4.64543784e+00,-1.14226713e+00,2.44757364e+00,5.03210286e+00,6.56070373e+00,4.73684407e+00,6.34531895e+00,4.73122410e+00,9.04755134e-01,5.39673563e+00,3.70084491e+00,3.52334465e+00,8.34514572e-01,8.90209495e-01,-3.95269558e-01,-2.85299357e+00,-1.56280391e+00,-4.09969598e+00,8.00669307e-01,-4.97114026e+00,2.88183953e+00,2.64305738e+00,1.32455269e-02,2.50358481e+00,3.93498404e+00,1.78992820e+00,1.66824661e+00,-6.34689749e-01,-5.80248199e+00,-3.51561587e+00
6.17135099e-01,2.24307468e+00,6.17135099e-01,2.24307468e+00,6.17135099e-01,2.24307468e+00,6.17135099e-01,2.24307468e+00,6.17135099e-01,2.24307468e+00,7.86316248e-01,-1.99657013e+00,-4.77144259e+00,2.00883340e+00,-8.78649279e-01,-3.47617397e+00,-1.02482479e-01,1.41340013e-01,-2.45527569e+00,2.22508661e+00,4.13400317e-01,-1.22420061e+00,-4.00924229e+00,-8.99386599e+00,-1.15643751e+01,-8.11449590e+00,-5.77602985e+00,-5.35035053e+00,-3.76853307e+00,-1.41460859e+00,-1.80258870e+00,-1.41083071e+00,-2.70178391e+00,-4.69864105e+00,-4.64206840e+00,-3.99970243e+00,-2.73683546e+00,-4.76839471e+00,-3.59474365e+00,-1.83188332e+00,-3.70729185e+00,-6.29265142e+00,-2.97894975e+00,-2.26947922e+00,-1.91719803e+00,-6.94121560e+00,-6.65171389e+00,-3.12877345e+00,-1.01516697e+00,-5.46900170e+00,-8.40137704e+00,-5.47923183e+00,-4.07304254e+00,-7.59943455e+00,-4.19082959e+00,-1.51095481e+00,-1.33953730e+00,1.28537293e+00,-1.03922716e+01,-1.19538935e+01,-7.40130157e+00,-7.70031406e+00,-3.68867555e+00,-1.21865213e+01,-1.58575062e+01,-1.20666184e+01,-6.94718844e+00,-1.00173407e+01,-1.19878413e+01,-4.90353894e+00
